2016/06/01 * guld pre-founding contributions
    matthiaswinkelmann:Assets                              100 GULD
    matthiaswinkelmann:Income:guld                        -100 GULD
    guld:Liabilities                         -100 GULD
    guld:Equity:matthiaswinkelmann                          100 GULD
